%YAML 1.1
%TAG !u! tag:unity3d.com,2011:
--- !u!114 &11400000
MonoBehaviour:
  m_ObjectHideFlags: 0
  m_CorrespondingSourceObject: {fileID: 0}
  m_PrefabInstance: {fileID: 0}
  m_PrefabAsset: {fileID: 0}
  m_GameObject: {fileID: 0}
  m_Enabled: 1
  m_EditorHideFlags: 0
  m_Script: {fileID: 11500000, guid: 935899b62f48ae5498594680ed17d133, type: 3}
  m_Name: Dialogue Database
  m_EditorClassIdentifier: 
  version: 
  author: 
  description: 
  globalUserScript: 
  emphasisSettings:
  - color: {r: 1, g: 1, b: 1, a: 1}
    bold: 0
    italic: 0
    underline: 0
  - color: {r: 1, g: 0, b: 0, a: 1}
    bold: 0
    italic: 0
    underline: 0
  - color: {r: 0, g: 1, b: 0, a: 1}
    bold: 0
    italic: 0
    underline: 0
  - color: {r: 0, g: 0, b: 1, a: 1}
    bold: 0
    italic: 0
    underline: 0
  actors:
  - id: 1
    fields:
    - title: Name
      value: Player
      type: 0
      typeString: 
    - title: Pictures
      value: '[]'
      type: 3
      typeString: CustomFieldType_Files
    - title: Description
      value: 
      type: 0
      typeString: 
    - title: IsPlayer
      value: True
      type: 2
      typeString: CustomFieldType_Boolean
    portrait: {fileID: 0}
    spritePortrait: {fileID: 0}
    alternatePortraits: []
    spritePortraits: []
  - id: 2
    fields:
    - title: Name
      value: NPC
      type: 0
      typeString: 
    - title: Pictures
      value: '[]'
      type: 3
      typeString: CustomFieldType_Files
    - title: Description
      value: 
      type: 0
      typeString: 
    - title: IsPlayer
      value: False
      type: 2
      typeString: CustomFieldType_Boolean
    portrait: {fileID: 0}
    spritePortrait: {fileID: 0}
    alternatePortraits: []
    spritePortraits: []
  items: []
  locations: []
  variables:
  - id: 1
    fields:
    - title: Name
      value: Alert
      type: 0
      typeString: 
    - title: Initial Value
      value: 
      type: 0
      typeString: CustomFieldType_Text
    - title: Description
      value: 
      type: 0
      typeString: 
  - id: 2
    fields:
    - title: Name
      value: Clicked
      type: 0
      typeString: 
    - title: Initial Value
      value: False
      type: 2
      typeString: CustomFieldType_Boolean
    - title: Description
      value: 
      type: 0
      typeString: 
  conversations:
  - id: 1
    fields:
    - title: Title
      value: New Conversation 1
      type: 0
      typeString: 
    - title: Pictures
      value: '[]'
      type: 3
      typeString: CustomFieldType_Files
    - title: Description
      value: 
      type: 0
      typeString: 
    - title: Actor
      value: 1
      type: 5
      typeString: CustomFieldType_Actor
    - title: Conversant
      value: 2
      type: 5
      typeString: CustomFieldType_Actor
    overrideSettings:
      useOverrides: 0
      overrideSubtitleSettings: 0
      showNPCSubtitlesDuringLine: 1
      showNPCSubtitlesWithResponses: 1
      showPCSubtitlesDuringLine: 0
      skipPCSubtitleAfterResponseMenu: 0
      subtitleCharsPerSecond: 30
      minSubtitleSeconds: 2
      continueButton: 0
      overrideSequenceSettings: 0
      defaultSequence: 
      defaultPlayerSequence: 
      defaultResponseMenuSequence: 
      overrideInputSettings: 0
      alwaysForceResponseMenu: 1
      includeInvalidEntries: 0
      responseTimeout: 0
      cancelSubtitle:
        key: 27
        buttonName: 
      cancelConversation:
        key: 27
        buttonName: 
    nodeColor: 
    dialogueEntries:
    - id: 0
      fields:
      - title: Title
        value: START
        type: 0
        typeString: CustomFieldType_Text
      - title: Pictures
        value: '[]'
        type: 3
        typeString: CustomFieldType_Files
      - title: Description
        value: 
        type: 0
        typeString: CustomFieldType_Text
      - title: Actor
        value: 1
        type: 5
        typeString: CustomFieldType_Actor
      - title: Conversant
        value: 2
        type: 5
        typeString: CustomFieldType_Actor
      - title: Menu Text
        value: 
        type: 0
        typeString: CustomFieldType_Text
      - title: Dialogue Text
        value: 
        type: 0
        typeString: CustomFieldType_Text
      - title: Parenthetical
        value: 
        type: 0
        typeString: CustomFieldType_Text
      - title: Audio Files
        value: '[]'
        type: 3
        typeString: CustomFieldType_Files
      - title: Video File
        value: 
        type: 0
        typeString: CustomFieldType_Text
      - title: Sequence
        value: None()
        type: 0
        typeString: CustomFieldType_Text
      conversationID: 1
      isRoot: 0
      isGroup: 0
      nodeColor: 
      delaySimStatus: 0
      falseConditionAction: Block
      conditionPriority: 2
      outgoingLinks:
      - originConversationID: 1
        originDialogueID: 0
        destinationConversationID: 1
        destinationDialogueID: 5
        isConnector: 0
        priority: 2
      conditionsString: 
      userScript: 
      onExecute:
        m_PersistentCalls:
          m_Calls: []
      canvasRect:
        serializedVersion: 2
        x: 549.46826
        y: 38.025314
        width: 160
        height: 30
    - id: 5
      fields:
      - title: Title
        value: 
        type: 0
        typeString: 
      - title: Pictures
        value: '[]'
        type: 3
        typeString: CustomFieldType_Files
      - title: Description
        value: 
        type: 0
        typeString: 
      - title: Actor
        value: 2
        type: 5
        typeString: CustomFieldType_Actor
      - title: Conversant
        value: 1
        type: 5
        typeString: CustomFieldType_Actor
      - title: Menu Text
        value: 
        type: 0
        typeString: 
      - title: Dialogue Text
        value: Infront of a classroom
        type: 0
        typeString: 
      - title: Parenthetical
        value: 
        type: 0
        typeString: 
      - title: Audio Files
        value: '[]'
        type: 3
        typeString: CustomFieldType_Files
      - title: Video File
        value: 
        type: 0
        typeString: 
      - title: Sequence
        value: 
        type: 0
        typeString: 
      conversationID: 1
      isRoot: 0
      isGroup: 0
      nodeColor: 
      delaySimStatus: 0
      falseConditionAction: Block
      conditionPriority: 2
      outgoingLinks:
      - originConversationID: 1
        originDialogueID: 5
        destinationConversationID: 1
        destinationDialogueID: 7
        isConnector: 0
        priority: 2
      - originConversationID: 1
        originDialogueID: 5
        destinationConversationID: 1
        destinationDialogueID: 11
        isConnector: 0
        priority: 2
      - originConversationID: 1
        originDialogueID: 5
        destinationConversationID: 1
        destinationDialogueID: 12
        isConnector: 0
        priority: 2
      conditionsString: 
      userScript: 
      onExecute:
        m_PersistentCalls:
          m_Calls: []
      canvasRect:
        serializedVersion: 2
        x: 548.20245
        y: 99.417725
        width: 160
        height: 30
    - id: 7
      fields:
      - title: Title
        value: 
        type: 0
        typeString: 
      - title: Pictures
        value: '[]'
        type: 3
        typeString: CustomFieldType_Files
      - title: Description
        value: 
        type: 0
        typeString: 
      - title: Actor
        value: 1
        type: 5
        typeString: CustomFieldType_Actor
      - title: Conversant
        value: 2
        type: 5
        typeString: CustomFieldType_Actor
      - title: Menu Text
        value: 
        type: 0
        typeString: 
      - title: Dialogue Text
        value: Hi Justin how are you today?
        type: 0
        typeString: 
      - title: Parenthetical
        value: 
        type: 0
        typeString: 
      - title: Audio Files
        value: '[]'
        type: 3
        typeString: CustomFieldType_Files
      - title: Video File
        value: 
        type: 0
        typeString: 
      - title: Sequence
        value: 
        type: 0
        typeString: 
      conversationID: 1
      isRoot: 0
      isGroup: 0
      nodeColor: 
      delaySimStatus: 0
      falseConditionAction: Block
      conditionPriority: 2
      outgoingLinks:
      - originConversationID: 1
        originDialogueID: 7
        destinationConversationID: 1
        destinationDialogueID: 13
        isConnector: 0
        priority: 2
      conditionsString: 
      userScript: 
      onExecute:
        m_PersistentCalls:
          m_Calls: []
      canvasRect:
        serializedVersion: 2
        x: 563.3922
        y: 292.45566
        width: 160
        height: 30
    - id: 11
      fields:
      - title: Title
        value: 
        type: 0
        typeString: 
      - title: Pictures
        value: '[]'
        type: 3
        typeString: CustomFieldType_Files
      - title: Description
        value: 
        type: 0
        typeString: 
      - title: Actor
        value: 1
        type: 5
        typeString: CustomFieldType_Actor
      - title: Conversant
        value: 2
        type: 5
        typeString: CustomFieldType_Actor
      - title: Menu Text
        value: 
        type: 0
        typeString: 
      - title: Dialogue Text
        value: 'Hey Justin can I talk to you? '
        type: 0
        typeString: 
      - title: Parenthetical
        value: 
        type: 0
        typeString: 
      - title: Audio Files
        value: '[]'
        type: 3
        typeString: CustomFieldType_Files
      - title: Video File
        value: 
        type: 0
        typeString: 
      - title: Sequence
        value: 
        type: 0
        typeString: 
      conversationID: 1
      isRoot: 0
      isGroup: 0
      nodeColor: 
      delaySimStatus: 0
      falseConditionAction: Block
      conditionPriority: 2
      outgoingLinks:
      - originConversationID: 1
        originDialogueID: 11
        destinationConversationID: 1
        destinationDialogueID: 13
        isConnector: 0
        priority: 2
      conditionsString: 
      userScript: 
      onExecute:
        m_PersistentCalls:
          m_Calls: []
      canvasRect:
        serializedVersion: 2
        x: 333.9493
        y: 282.6329
        width: 160
        height: 30
    - id: 12
      fields:
      - title: Title
        value: 
        type: 0
        typeString: 
      - title: Pictures
        value: '[]'
        type: 3
        typeString: CustomFieldType_Files
      - title: Description
        value: 
        type: 0
        typeString: 
      - title: Actor
        value: 1
        type: 5
        typeString: CustomFieldType_Actor
      - title: Conversant
        value: 2
        type: 5
        typeString: CustomFieldType_Actor
      - title: Menu Text
        value: 
        type: 0
        typeString: 
      - title: Dialogue Text
        value: "\u2026. say nothing\u2026 "
        type: 0
        typeString: 
      - title: Parenthetical
        value: 
        type: 0
        typeString: 
      - title: Audio Files
        value: '[]'
        type: 3
        typeString: CustomFieldType_Files
      - title: Video File
        value: 
        type: 0
        typeString: 
      - title: Sequence
        value: 
        type: 0
        typeString: 
      conversationID: 1
      isRoot: 0
      isGroup: 0
      nodeColor: 
      delaySimStatus: 0
      falseConditionAction: Block
      conditionPriority: 2
      outgoingLinks:
      - originConversationID: 1
        originDialogueID: 12
        destinationConversationID: 1
        destinationDialogueID: 13
        isConnector: 0
        priority: 2
      conditionsString: 
      userScript: 
      onExecute:
        m_PersistentCalls:
          m_Calls: []
      canvasRect:
        serializedVersion: 2
        x: 843.1391
        y: 296.2531
        width: 160
        height: 30
    - id: 13
      fields:
      - title: Title
        value: 
        type: 0
        typeString: 
      - title: Pictures
        value: '[]'
        type: 3
        typeString: CustomFieldType_Files
      - title: Description
        value: 
        type: 0
        typeString: 
      - title: Actor
        value: 2
        type: 5
        typeString: CustomFieldType_Actor
      - title: Conversant
        value: 1
        type: 5
        typeString: CustomFieldType_Actor
      - title: Menu Text
        value: 
        type: 0
        typeString: 
      - title: Dialogue Text
        value: "Hey what are you doing here? You don\u2019t have this class. "
        type: 0
        typeString: 
      - title: Parenthetical
        value: 
        type: 0
        typeString: 
      - title: Audio Files
        value: '[]'
        type: 3
        typeString: CustomFieldType_Files
      - title: Video File
        value: 
        type: 0
        typeString: 
      - title: Sequence
        value: 
        type: 0
        typeString: 
      conversationID: 1
      isRoot: 0
      isGroup: 0
      nodeColor: 
      delaySimStatus: 0
      falseConditionAction: Block
      conditionPriority: 2
      outgoingLinks:
      - originConversationID: 1
        originDialogueID: 13
        destinationConversationID: 1
        destinationDialogueID: 14
        isConnector: 0
        priority: 2
      - originConversationID: 1
        originDialogueID: 13
        destinationConversationID: 1
        destinationDialogueID: 15
        isConnector: 0
        priority: 2
      - originConversationID: 1
        originDialogueID: 13
        destinationConversationID: 1
        destinationDialogueID: 16
        isConnector: 0
        priority: 2
      conditionsString: 
      userScript: 
      onExecute:
        m_PersistentCalls:
          m_Calls: []
      canvasRect:
        serializedVersion: 2
        x: 562.1264
        y: 376.63287
        width: 160
        height: 30
    - id: 14
      fields:
      - title: Title
        value: 
        type: 0
        typeString: 
      - title: Pictures
        value: '[]'
        type: 3
        typeString: CustomFieldType_Files
      - title: Description
        value: 
        type: 0
        typeString: 
      - title: Actor
        value: 1
        type: 5
        typeString: CustomFieldType_Actor
      - title: Conversant
        value: 2
        type: 5
        typeString: CustomFieldType_Actor
      - title: Menu Text
        value: 
        type: 0
        typeString: 
      - title: Dialogue Text
        value: 'I wanted to find you to give you this (hands letter) '
        type: 0
        typeString: 
      - title: Parenthetical
        value: 
        type: 0
        typeString: 
      - title: Audio Files
        value: '[]'
        type: 3
        typeString: CustomFieldType_Files
      - title: Video File
        value: 
        type: 0
        typeString: 
      - title: Sequence
        value: 
        type: 0
        typeString: 
      conversationID: 1
      isRoot: 0
      isGroup: 0
      nodeColor: 
      delaySimStatus: 0
      falseConditionAction: Block
      conditionPriority: 2
      outgoingLinks:
      - originConversationID: 1
        originDialogueID: 14
        destinationConversationID: 1
        destinationDialogueID: 17
        isConnector: 0
        priority: 2
      conditionsString: 
      userScript: 
      onExecute:
        m_PersistentCalls:
          m_Calls: []
      canvasRect:
        serializedVersion: 2
        x: 349.46823
        y: 473.46826
        width: 160
        height: 30
    - id: 15
      fields:
      - title: Title
        value: 
        type: 0
        typeString: 
      - title: Pictures
        value: '[]'
        type: 3
        typeString: CustomFieldType_Files
      - title: Description
        value: 
        type: 0
        typeString: 
      - title: Actor
        value: 1
        type: 5
        typeString: CustomFieldType_Actor
      - title: Conversant
        value: 2
        type: 5
        typeString: CustomFieldType_Actor
      - title: Menu Text
        value: 
        type: 0
        typeString: 
      - title: Dialogue Text
        value: Yeah I just wanted to give you this (hands letter)
        type: 0
        typeString: 
      - title: Parenthetical
        value: 
        type: 0
        typeString: 
      - title: Audio Files
        value: '[]'
        type: 3
        typeString: CustomFieldType_Files
      - title: Video File
        value: 
        type: 0
        typeString: 
      - title: Sequence
        value: 
        type: 0
        typeString: 
      conversationID: 1
      isRoot: 0
      isGroup: 0
      nodeColor: 
      delaySimStatus: 0
      falseConditionAction: Block
      conditionPriority: 2
      outgoingLinks:
      - originConversationID: 1
        originDialogueID: 15
        destinationConversationID: 1
        destinationDialogueID: 17
        isConnector: 0
        priority: 2
      conditionsString: 
      userScript: 
      onExecute:
        m_PersistentCalls:
          m_Calls: []
      canvasRect:
        serializedVersion: 2
        x: 562.1264
        y: 474.73413
        width: 160
        height: 30
    - id: 16
      fields:
      - title: Title
        value: 
        type: 0
        typeString: 
      - title: Pictures
        value: '[]'
        type: 3
        typeString: CustomFieldType_Files
      - title: Description
        value: 
        type: 0
        typeString: 
      - title: Actor
        value: 1
        type: 5
        typeString: CustomFieldType_Actor
      - title: Conversant
        value: 2
        type: 5
        typeString: CustomFieldType_Actor
      - title: Menu Text
        value: 
        type: 0
        typeString: 
      - title: Dialogue Text
        value: "\u2026 silence\u2026 (hands letter)"
        type: 0
        typeString: 
      - title: Parenthetical
        value: 
        type: 0
        typeString: 
      - title: Audio Files
        value: '[]'
        type: 3
        typeString: CustomFieldType_Files
      - title: Video File
        value: 
        type: 0
        typeString: 
      - title: Sequence
        value: 
        type: 0
        typeString: 
      conversationID: 1
      isRoot: 0
      isGroup: 0
      nodeColor: 
      delaySimStatus: 0
      falseConditionAction: Block
      conditionPriority: 2
      outgoingLinks:
      - originConversationID: 1
        originDialogueID: 16
        destinationConversationID: 1
        destinationDialogueID: 17
        isConnector: 0
        priority: 2
      conditionsString: 
      userScript: 
      onExecute:
        m_PersistentCalls:
          m_Calls: []
      canvasRect:
        serializedVersion: 2
        x: 786.177
        y: 477.2657
        width: 160
        height: 30
    - id: 17
      fields:
      - title: Title
        value: 
        type: 0
        typeString: 
      - title: Pictures
        value: '[]'
        type: 3
        typeString: CustomFieldType_Files
      - title: Description
        value: 
        type: 0
        typeString: 
      - title: Actor
        value: 2
        type: 5
        typeString: CustomFieldType_Actor
      - title: Conversant
        value: 1
        type: 5
        typeString: CustomFieldType_Actor
      - title: Menu Text
        value: 
        type: 0
        typeString: 
      - title: Dialogue Text
        value: Oh thanks (starts to open)
        type: 0
        typeString: 
      - title: Parenthetical
        value: 
        type: 0
        typeString: 
      - title: Audio Files
        value: '[]'
        type: 3
        typeString: CustomFieldType_Files
      - title: Video File
        value: 
        type: 0
        typeString: 
      - title: Sequence
        value: 
        type: 0
        typeString: 
      conversationID: 1
      isRoot: 0
      isGroup: 0
      nodeColor: 
      delaySimStatus: 0
      falseConditionAction: Block
      conditionPriority: 2
      outgoingLinks:
      - originConversationID: 1
        originDialogueID: 17
        destinationConversationID: 1
        destinationDialogueID: 18
        isConnector: 0
        priority: 2
      - originConversationID: 1
        originDialogueID: 17
        destinationConversationID: 1
        destinationDialogueID: 19
        isConnector: 0
        priority: 2
      conditionsString: 
      userScript: 
      onExecute:
        m_PersistentCalls:
          m_Calls: []
      canvasRect:
        serializedVersion: 2
        x: 563.3922
        y: 542.4557
        width: 160
        height: 30
    - id: 18
      fields:
      - title: Title
        value: 
        type: 0
        typeString: 
      - title: Pictures
        value: '[]'
        type: 3
        typeString: CustomFieldType_Files
      - title: Description
        value: 
        type: 0
        typeString: 
      - title: Actor
        value: 1
        type: 5
        typeString: CustomFieldType_Actor
      - title: Conversant
        value: 2
        type: 5
        typeString: CustomFieldType_Actor
      - title: Menu Text
        value: 
        type: 0
        typeString: 
      - title: Dialogue Text
        value: "Don\u2019t open it yet! Wait until after class. (class about to start)
          (the rap I already sent) "
        type: 0
        typeString: 
      - title: Parenthetical
        value: 
        type: 0
        typeString: 
      - title: Audio Files
        value: '[]'
        type: 3
        typeString: CustomFieldType_Files
      - title: Video File
        value: 
        type: 0
        typeString: 
      - title: Sequence
        value: 
        type: 0
        typeString: 
      conversationID: 1
      isRoot: 0
      isGroup: 0
      nodeColor: 
      delaySimStatus: 0
      falseConditionAction: Block
      conditionPriority: 2
      outgoingLinks: []
      conditionsString: 
      userScript: 
      onExecute:
        m_PersistentCalls:
          m_Calls: []
      canvasRect:
        serializedVersion: 2
        x: 329.21503
        y: 603.8481
        width: 160
        height: 30
    - id: 19
      fields:
      - title: Title
        value: 
        type: 0
        typeString: 
      - title: Pictures
        value: '[]'
        type: 3
        typeString: CustomFieldType_Files
      - title: Description
        value: 
        type: 0
        typeString: 
      - title: Actor
        value: 1
        type: 5
        typeString: CustomFieldType_Actor
      - title: Conversant
        value: 2
        type: 5
        typeString: CustomFieldType_Actor
      - title: Menu Text
        value: 
        type: 0
        typeString: 
      - title: Dialogue Text
        value: 'Open it after I leave! (class has just ended) '
        type: 0
        typeString: 
      - title: Parenthetical
        value: 
        type: 0
        typeString: 
      - title: Audio Files
        value: '[]'
        type: 3
        typeString: CustomFieldType_Files
      - title: Video File
        value: 
        type: 0
        typeString: 
      - title: Sequence
        value: 
        type: 0
        typeString: 
      conversationID: 1
      isRoot: 0
      isGroup: 0
      nodeColor: 
      delaySimStatus: 0
      falseConditionAction: Block
      conditionPriority: 2
      outgoingLinks: []
      conditionsString: 
      userScript: 
      onExecute:
        m_PersistentCalls:
          m_Calls: []
      canvasRect:
        serializedVersion: 2
        x: 777.3162
        y: 606.3797
        width: 160
        height: 30
    canvasScrollPosition: {x: 0, y: 55.696198}
    canvasZoom: 0.79000014
  syncInfo:
    syncActors: 0
    syncItems: 0
    syncLocations: 0
    syncVariables: 0
    syncActorsDatabase: {fileID: 0}
    syncItemsDatabase: {fileID: 0}
    syncLocationsDatabase: {fileID: 0}
    syncVariablesDatabase: {fileID: 0}
  templateJson: '{"treatItemsAsQuests":true,"actorFields":[{"title":"Name","value":"","type":0,"typeString":""},{"title":"Pictures","value":"[]","type":3,"typeString":"CustomFieldType_Files"},{"title":"Description","value":"","type":0,"typeString":""},{"title":"IsPlayer","value":"False","type":2,"typeString":"CustomFieldType_Boolean"}],"itemFields":[{"title":"Name","value":"","type":0,"typeString":""},{"title":"Pictures","value":"[]","type":3,"typeString":"CustomFieldType_Files"},{"title":"Description","value":"","type":0,"typeString":""},{"title":"Is
    Item","value":"True","type":2,"typeString":"CustomFieldType_Boolean"}],"questFields":[{"title":"Name","value":"","type":0,"typeString":""},{"title":"Pictures","value":"[]","type":3,"typeString":"CustomFieldType_Files"},{"title":"Description","value":"","type":0,"typeString":""},{"title":"Success
    Description","value":"","type":0,"typeString":""},{"title":"Failure Description","value":"","type":0,"typeString":""},{"title":"State","value":"unassigned","type":0,"typeString":""},{"title":"Is
    Item","value":"False","type":2,"typeString":"CustomFieldType_Boolean"}],"locationFields":[{"title":"Name","value":"","type":0,"typeString":""},{"title":"Pictures","value":"[]","type":3,"typeString":"CustomFieldType_Files"},{"title":"Description","value":"","type":0,"typeString":""}],"variableFields":[{"title":"Name","value":"","type":0,"typeString":""},{"title":"Initial
    Value","value":"","type":0,"typeString":""},{"title":"Description","value":"","type":0,"typeString":""}],"conversationFields":[{"title":"Title","value":"","type":0,"typeString":""},{"title":"Pictures","value":"[]","type":3,"typeString":"CustomFieldType_Files"},{"title":"Description","value":"","type":0,"typeString":""},{"title":"Actor","value":"0","type":5,"typeString":"CustomFieldType_Actor"},{"title":"Conversant","value":"0","type":5,"typeString":"CustomFieldType_Actor"}],"dialogueEntryFields":[{"title":"Title","value":"","type":0,"typeString":""},{"title":"Pictures","value":"[]","type":3,"typeString":"CustomFieldType_Files"},{"title":"Description","value":"","type":0,"typeString":""},{"title":"Actor","value":"","type":5,"typeString":"CustomFieldType_Actor"},{"title":"Conversant","value":"","type":5,"typeString":"CustomFieldType_Actor"},{"title":"Menu
    Text","value":"","type":0,"typeString":""},{"title":"Dialogue Text","value":"","type":0,"typeString":""},{"title":"Parenthetical","value":"","type":0,"typeString":""},{"title":"Audio
    Files","value":"[]","type":3,"typeString":"CustomFieldType_Files"},{"title":"Video
    File","value":"","type":0,"typeString":""},{"title":"Sequence","value":"","type":0,"typeString":""}],"actorPrimaryFieldTitles":[],"itemPrimaryFieldTitles":[],"questPrimaryFieldTitles":[],"locationPrimaryFieldTitles":[],"variablePrimaryFieldTitles":[],"conversationPrimaryFieldTitles":[],"dialogueEntryPrimaryFieldTitles":[],"npcLineColor":{"r":1.0,"g":0.0,"b":0.0,"a":1.0},"pcLineColor":{"r":0.0,"g":0.0,"b":1.0,"a":1.0},"repeatLineColor":{"r":0.5,"g":0.5,"b":0.5,"a":1.0}}'
